<svg width="25" height="24" viewBox="0 0 25 24" fill="none" xmlns="http://www.w3.org/2000/svg">
<g clip-path="url(#clip0_50_778)">
<path d="M21.866 10.6992C21.8665 12.7215 21.2671 14.6986 20.1436 16.3801C19.02 18.0617 17.423 19.3722 15.5544 20.1458C13.6859 20.9194 11.6298 21.1213 9.64649 20.726C7.66314 20.3307 5.84163 19.3559 4.41245 17.9251C2.98327 16.4942 2.01065 14.6716 1.61768 12.6878C1.22471 10.704 1.42905 8.64816 2.20484 6.78052C2.98062 4.91288 4.29299 3.31734 5.97587 2.1958C7.65875 1.07427 9.6365 0.477142 11.6589 0.479991C14.3673 0.482535 16.9638 1.5604 18.8779 3.47666C20.7919 5.39293 21.8667 7.99077 21.866 10.6992Z" stroke="#A989F5" stroke-width="0.75" stroke-linecap="round" stroke-linejoin="round"/>
<path d="M20.3465 16.8457L23.4521 18.9817C23.7517 19.1881 24.0024 19.4577 24.1865 19.7715C24.3706 20.0853 24.4837 20.4356 24.5178 20.7978C24.5519 21.16 24.5062 21.5253 24.3838 21.8679C24.2615 22.2106 24.0655 22.5222 23.8097 22.7809V22.7809C23.5526 23.0401 23.2416 23.2395 22.8987 23.365C22.5559 23.4906 22.1897 23.5392 21.826 23.5073C21.4622 23.4755 21.11 23.364 20.7942 23.1808C20.4784 22.9976 20.2067 22.7472 19.9985 22.4473L18.7817 20.1817" stroke="#A989F5" stroke-width="0.75" stroke-linecap="round" stroke-linejoin="round"/>
<path d="M5.56006 10.6993C6.93526 13.5793 9.16006 15.4609 11.6585 15.4609C14.1569 15.4609 16.3841 13.5841 17.7569 10.6993C16.3841 7.81934 14.1569 5.93774 11.6585 5.93774C9.64006 5.93774 7.80406 7.15694 6.45046 9.14174" stroke="#A989F5" stroke-width="0.75" stroke-linecap="round" stroke-linejoin="round"/>
<path d="M13.8999 10.6992C13.898 11.2575 13.6871 11.7948 13.3089 12.2054C12.9306 12.616 12.4123 12.8701 11.856 12.9177C11.2997 12.9653 10.7458 12.8029 10.3033 12.4625C9.86076 12.1221 9.56169 11.6284 9.46495 11.0786C9.36822 10.5287 9.48084 9.96258 9.78063 9.49161C10.0804 9.02063 10.5457 8.67895 11.0848 8.53384C11.6239 8.38872 12.1978 8.45068 12.6935 8.70752C13.1892 8.96436 13.5708 9.39747 13.7631 9.92158C13.8544 10.1706 13.9007 10.4339 13.8999 10.6992V10.6992Z" stroke="#A989F5" stroke-width="0.75" stroke-linecap="round" stroke-linejoin="round"/>
</g>
<defs>
<clipPath id="clip0_50_778">
<rect width="24" height="24" fill="white" transform="translate(0.986328)"/>
</clipPath>
</defs>
</svg>
