<svg width="84" height="50" viewBox="0 0 84 50" fill="none" xmlns="http://www.w3.org/2000/svg">
<path d="M0.0351562 44.8126C0.0351562 42.0414 2.10687 40.0991 4.9556 40.0991C6.09152 40.0991 6.91796 40.3722 7.40286 40.5945C7.69448 40.7281 7.83222 41.064 7.7121 41.3615L7.60861 41.6174C7.48506 41.9237 7.13594 42.0727 6.83135 41.9455C6.43526 41.7796 5.83464 41.6013 5.08527 41.6013C3.32402 41.6013 1.84778 42.8444 1.84778 44.8126C1.84778 46.7808 3.32402 47.9723 5.08527 47.9723C5.82192 47.9723 6.41471 47.7998 6.81104 47.6366C7.12371 47.5077 7.47919 47.6657 7.5954 47.9833L7.68592 48.2309C7.7899 48.5156 7.66561 48.8371 7.39209 48.9683C6.92554 49.1926 6.10963 49.4742 4.9556 49.4742C2.10687 49.4742 0.0351562 47.5578 0.0351562 44.8126Z" fill="#171321"/>
<path d="M16.0141 44.8126C16.0141 42.8184 14.5897 41.5494 12.8805 41.5494C11.1971 41.5494 9.77273 42.8184 9.77273 44.8126C9.77273 46.8068 11.1971 48.0239 12.8805 48.0239C14.5897 48.0239 16.0141 46.8068 16.0141 44.8126ZM12.8805 49.4742C10.1872 49.4742 8.01172 47.6873 8.01172 44.8385C8.01172 41.9639 10.1872 40.0991 12.8805 40.0991C15.5739 40.0991 17.7751 41.9639 17.7751 44.8385C17.7751 47.6873 15.5739 49.4742 12.8805 49.4742Z" fill="#171321"/>
<path d="M20.6355 41.6013C21.2829 40.6689 22.2671 40.0991 23.9762 40.0991C26.4886 40.0991 27.9646 41.7307 27.9646 44.1652V48.6715C27.9646 49.0006 27.6979 49.267 27.3691 49.267H26.7734C26.4443 49.267 26.1776 49.0006 26.1776 48.6715V44.3982C26.1776 42.7927 25.2971 41.6013 23.5877 41.6013C21.6973 41.6013 20.8944 43.0256 20.8944 44.0358V48.6715C20.8944 49.0006 20.6277 49.267 20.2989 49.267H19.7031C19.3741 49.267 19.1074 49.0006 19.1074 48.6715V40.9021C19.1074 40.573 19.3741 40.3063 19.7031 40.3063H19.8326C20.1296 40.3063 20.3813 40.5253 20.4224 40.8194L20.5489 41.7221C20.5981 41.6439 20.6355 41.6013 20.6355 41.6013Z" fill="#171321"/>
<path d="M33.3435 46.4959L36.0076 40.6548C36.1044 40.4424 36.3163 40.3062 36.5495 40.3062H37.1785C37.6196 40.3062 37.9075 40.7688 37.713 41.1644L33.8957 48.9341C33.7957 49.1379 33.5882 49.2668 33.3612 49.2668H32.8599C32.6328 49.2668 32.4256 49.1379 32.3255 48.9341L28.508 41.1644C28.3137 40.7688 28.6017 40.3062 29.0426 40.3062H29.6975C29.9306 40.3062 30.1425 40.4424 30.2394 40.6548L32.8934 46.4736L33.1106 46.9959L33.3435 46.4959Z" fill="#171321"/>
<path d="M44.9117 42.996C44.4767 42.1292 43.6381 41.5494 42.5249 41.5494C41.3939 41.5494 40.5263 42.0688 40.0123 42.9762C39.9335 43.1152 39.8232 43.318 39.695 43.8545H45.1373C45.0869 43.4553 45.0262 43.2916 44.9117 42.996ZM39.7821 45.9534C40.2271 47.3284 41.4609 48.0239 42.9393 48.0239C43.949 48.0239 44.7042 47.7609 45.1593 47.541C45.4499 47.4005 45.7981 47.5202 45.9449 47.8076L46.0432 48.0004C46.1864 48.2805 46.0892 48.626 45.8169 48.7835C45.2904 49.0879 44.3184 49.5001 42.9134 49.5001C39.8574 49.5001 37.8633 47.5578 37.8633 44.8126C37.8633 42.0933 39.7799 40.0991 42.5508 40.0991C45.3477 40.0991 46.9536 42.0414 46.9536 44.5797C46.9536 44.9085 46.6869 45.1752 46.3579 45.1752H39.6923C39.7048 45.5642 39.7048 45.5214 39.7821 45.9534Z" fill="#171321"/>
<path d="M49.7404 41.6011C50.0768 41.0832 50.8539 40.3062 52.382 40.3062C52.8231 40.3062 53.1827 40.3671 53.4565 40.4407C53.8083 40.5354 53.9893 40.9241 53.8413 41.2571L53.6962 41.5835C53.5783 41.8487 53.2881 41.9884 53.0063 41.9184C52.8184 41.8719 52.5747 41.8343 52.2782 41.8343C51.1907 41.8343 50.0252 42.637 50.0252 43.7765V48.6713C50.0252 49.0004 49.7586 49.2668 49.4295 49.2668H48.834C48.505 49.2668 48.2383 49.0004 48.2383 48.6713V40.9019C48.2383 40.5728 48.505 40.3062 48.834 40.3062H48.9634C49.2604 40.3062 49.5122 40.5251 49.5533 40.8194L49.6754 41.6963C49.6942 41.6728 49.7404 41.6011 49.7404 41.6011Z" fill="#171321"/>
<path d="M54.5389 47.6356C54.6935 47.3702 55.0235 47.2657 55.3024 47.3951C55.8624 47.6552 56.8748 48.0239 58.115 48.0239C59.5912 48.0239 60.446 47.6097 60.446 46.8327C60.446 44.9679 54.2822 45.9003 54.2822 42.689C54.2822 41.2387 55.4475 40.0991 58.089 40.0991C59.5882 40.0991 60.6542 40.3629 61.2641 40.5723C61.5986 40.6868 61.7581 41.0655 61.6093 41.386L61.4596 41.7084C61.3245 41.9993 60.9837 42.1336 60.6894 42.0067C60.2104 41.8002 59.3969 41.5494 58.2703 41.5494C56.8719 41.5494 55.9914 41.8085 55.9914 42.6631C55.9914 44.45 62.1551 43.4142 62.1551 46.7808C62.1551 48.2311 60.9896 49.4742 58.115 49.4742C56.374 49.4742 55.2266 49.0368 54.6203 48.7168C54.3224 48.5594 54.2194 48.1834 54.3891 47.8923L54.5389 47.6356Z" fill="#171321"/>
<path d="M64.0125 40.3062H64.6082C64.937 40.3062 65.2037 40.5728 65.2037 40.9019V48.6713C65.2037 49.0004 64.937 49.2668 64.6082 49.2668H64.0125C63.6834 49.2668 63.417 49.0004 63.417 48.6713V40.9019C63.417 40.5728 63.6834 40.3062 64.0125 40.3062Z" fill="#171321"/>
<path d="M66.4912 44.8126C66.4912 42.0414 68.5629 40.0991 71.4119 40.0991C72.5476 40.0991 73.374 40.3722 73.8589 40.5945C74.1505 40.7281 74.2883 41.064 74.1682 41.3615L74.0649 41.6174C73.9411 41.9235 73.5922 42.0727 73.2876 41.9455C72.8913 41.7796 72.2907 41.6013 71.5413 41.6013C69.7803 41.6013 68.3041 42.8444 68.3041 44.8126C68.3041 46.7808 69.7803 47.9723 71.5413 47.9723C72.278 47.9723 72.871 47.7998 73.2673 47.6366C73.5798 47.5077 73.9355 47.6657 74.0515 47.9833L74.142 48.2309C74.246 48.5156 74.1217 48.8371 73.8484 48.9683C73.3818 49.1926 72.5657 49.4742 71.4119 49.4742C68.5629 49.4742 66.4912 47.5578 66.4912 44.8126Z" fill="#171321"/>
<path d="M78.8676 48.1536C80.5511 48.1536 81.7425 47.1434 81.7425 46.522C81.7425 45.6415 80.5511 45.0198 78.8676 45.0198C77.3657 45.0198 76.4849 45.6155 76.4849 46.5736C76.4849 47.4541 77.262 48.1536 78.8676 48.1536ZM81.7941 44.7062V44.0874C81.7941 42.5077 80.9396 41.6013 78.7898 41.6013C77.8535 41.6013 77.1306 41.8401 76.6843 42.0436C76.3893 42.1782 76.0424 42.0519 75.9019 41.7596L75.7659 41.477C75.6218 41.1771 75.75 40.8182 76.0521 40.6782C76.6026 40.4233 77.6025 40.0991 79.1267 40.0991C82.2861 40.0991 83.5033 41.8861 83.5033 44.3206V48.6715C83.5033 49.0006 83.2366 49.267 82.9078 49.267H82.7627C82.4726 49.267 82.2245 49.0578 82.1758 48.7718L82.0579 48.0809C82.0195 48.1496 81.9754 48.2052 81.9754 48.2052C81.7425 48.5418 80.8358 49.4742 78.5569 49.4742C75.8892 49.4742 74.6982 48.1536 74.6982 46.5736C74.6982 45.0457 75.9929 43.8027 78.7898 43.8027C80.4473 43.8027 81.3019 44.2947 81.6388 44.5535C81.6388 44.5535 81.7254 44.632 81.7941 44.7062Z" fill="#171321"/>
<path d="M36.5817 33.4534C29.1496 33.4534 23.1035 27.407 23.1035 19.9752C23.1035 12.5434 29.1496 6.49707 36.5817 6.49707C39.6672 6.49707 42.6835 7.56669 45.0748 9.50899C47.43 11.4222 49.0868 14.0996 49.7405 17.0477C50.0273 18.3407 49.4934 19.5062 47.9183 19.9074C46.6349 20.2343 45.5244 19.5422 45.0589 18.0853C43.8317 14.245 40.6211 11.2923 36.5817 11.2923C31.7941 11.2923 27.8987 15.1876 27.8987 19.9752C27.8987 24.7628 31.7941 28.6579 36.5817 28.6579C37.6951 28.6579 38.7356 28.3208 39.8013 28.0421C41.1222 27.6967 42.423 28.1505 42.9174 29.3792C43.5036 30.8358 42.81 32.004 41.5804 32.4955C39.9889 33.1309 38.3072 33.4534 36.5817 33.4534Z" fill="#171321"/>
<path d="M37.1246 21.3992C41.2176 27.6024 49.5943 29.3191 55.7974 25.2263C62.0006 21.1333 63.7176 12.7569 59.6245 6.55349C57.9252 3.97804 55.3712 2.04944 52.4332 1.12319C49.539 0.211126 46.392 0.302871 43.5712 1.38081C42.3342 1.85348 41.6553 2.94096 42.1877 4.47639C42.6217 5.72779 43.8109 6.27361 45.2835 5.8599C49.1647 4.76924 53.3974 5.82272 55.622 9.19451C58.2586 13.1907 57.1526 18.5872 53.1564 21.2238C49.1603 23.8604 43.764 22.7544 41.1271 18.7582C40.514 17.829 40.2224 16.7748 39.8681 15.7319C39.429 14.4389 38.3337 13.6034 37.036 13.8671C35.4972 14.18 34.9041 15.4023 35.1713 16.6992C35.517 18.3778 36.1744 19.959 37.1246 21.3992Z" fill="#171321"/>
</svg>
